^C:\USERS\USER\SOURCE\REPOS\1.3\1.3\STDAFX.CPP
D:\VS1\VC\TOOLS\MSVC\14.13.26128\BIN\HOSTX86\X86\1049\CLUI.DLL
C:\WINDOWS\GLOBALIZATION\SORTING\SORTDEFAULT.NLS
C:\WINDOWS\SYSTEM32\RSAENH.DLL
C:\WINDOWS\SYSTEM32\TZRES.DLL
C:\USERS\USER\SOURCE\REPOS\1.3\1.3\STDAFX.H
C:\USERS\USER\SOURCE\REPOS\1.3\1.3\TARGETVER.H
C:\PROGRAM FILES\WINDOWS KITS\10\INCLUDE\10.0.16299.0\SHARED\SDKDDKVER.H
C:\PROGRAM FILES\WINDOWS KITS\10\INCLUDE\10.0.16299.0\UCRT\STDIO.H
C:\PROGRAM FILES\WINDOWS KITS\10\INCLUDE\10.0.16299.0\UCRT\CORECRT.H
D:\VS1\VC\TOOLS\MSVC\14.13.26128\INCLUDE\VCRUNTIME.H
D:\VS1\VC\TOOLS\MSVC\14.13.26128\INCLUDE\SAL.H
D:\VS1\VC\TOOLS\MSVC\14.13.26128\INCLUDE\CONCURRENCYSAL.H
D:\VS1\VC\TOOLS\MSVC\14.13.26128\INCLUDE\VADEFS.H
C:\PROGRAM FILES\WINDOWS KITS\10\INCLUDE\10.0.16299.0\UCRT\CORECRT_WSTDIO.H
C:\PROGRAM FILES\WINDOWS KITS\10\INCLUDE\10.0.16299.0\UCRT\CORECRT_STDIO_CONFIG.H
C:\PROGRAM FILES\WINDOWS KITS\10\INCLUDE\10.0.16299.0\UCRT\TCHAR.H
C:\PROGRAM FILES\WINDOWS KITS\10\INCLUDE\10.0.16299.0\UCRT\WCHAR.H
C:\PROGRAM FILES\WINDOWS KITS\10\INCLUDE\10.0.16299.0\UCRT\CORECRT_MEMCPY_S.H
C:\PROGRAM FILES\WINDOWS KITS\10\INCLUDE\10.0.16299.0\UCRT\ERRNO.H
D:\VS1\VC\TOOLS\MSVC\14.13.26128\INCLUDE\VCRUNTIME_STRING.H
C:\PROGRAM FILES\WINDOWS KITS\10\INCLUDE\10.0.16299.0\UCRT\CORECRT_WCONIO.H
C:\PROGRAM FILES\WINDOWS KITS\10\INCLUDE\10.0.16299.0\UCRT\CORECRT_WCTYPE.H
C:\PROGRAM FILES\WINDOWS KITS\10\INCLUDE\10.0.16299.0\UCRT\CORECRT_WDIRECT.H
C:\PROGRAM FILES\WINDOWS KITS\10\INCLUDE\10.0.16299.0\UCRT\CORECRT_WIO.H
C:\PROGRAM FILES\WINDOWS KITS\10\INCLUDE\10.0.16299.0\UCRT\CORECRT_SHARE.H
C:\PROGRAM FILES\WINDOWS KITS\10\INCLUDE\10.0.16299.0\UCRT\CORECRT_WPROCESS.H
C:\PROGRAM FILES\WINDOWS KITS\10\INCLUDE\10.0.16299.0\UCRT\CORECRT_WSTDLIB.H
C:\PROGRAM FILES\WINDOWS KITS\10\INCLUDE\10.0.16299.0\UCRT\CORECRT_WSTRING.H
C:\PROGRAM FILES\WINDOWS KITS\10\INCLUDE\10.0.16299.0\UCRT\CORECRT_WTIME.H
C:\PROGRAM FILES\WINDOWS KITS\10\INCLUDE\10.0.16299.0\UCRT\SYS\STAT.H
C:\PROGRAM FILES\WINDOWS KITS\10\INCLUDE\10.0.16299.0\UCRT\SYS\TYPES.H
^C:\USERS\USER\SOURCE\REPOS\1.3\1.3\1.3.CPP
D:\VS1\VC\TOOLS\MSVC\14.13.26128\BIN\HOSTX86\X86\1049\CLUI.DLL
C:\WINDOWS\GLOBALIZATION\SORTING\SORTDEFAULT.NLS
C:\USERS\USER\SOURCE\REPOS\1.3\1.3\DEBUG\1.3.PCH
C:\WINDOWS\SYSTEM32\RSAENH.DLL
C:\WINDOWS\SYSTEM32\TZRES.DLL
D:\VS1\VC\TOOLS\MSVC\14.13.26128\INCLUDE\STRING
D:\VS1\VC\TOOLS\MSVC\14.13.26128\INCLUDE\ISTREAM
D:\VS1\VC\TOOLS\MSVC\14.13.26128\INCLUDE\OSTREAM
D:\VS1\VC\TOOLS\MSVC\14.13.26128\INCLUDE\IOS
D:\VS1\VC\TOOLS\MSVC\14.13.26128\INCLUDE\XLOCNUM
D:\VS1\VC\TOOLS\MSVC\14.13.26128\INCLUDE\CLIMITS
D:\VS1\VC\TOOLS\MSVC\14.13.26128\INCLUDE\YVALS.H
D:\VS1\VC\TOOLS\MSVC\14.13.26128\INCLUDE\XKEYCHECK.H
D:\VS1\VC\TOOLS\MSVC\14.13.26128\INCLUDE\CRTDEFS.H
D:\VS1\VC\TOOLS\MSVC\14.13.26128\INCLUDE\VCRUNTIME.H
D:\VS1\VC\TOOLS\MSVC\14.13.26128\INCLUDE\USE_ANSI.H
D:\VS1\VC\TOOLS\MSVC\14.13.26128\INCLUDE\LIMITS.H
D:\VS1\VC\TOOLS\MSVC\14.13.26128\INCLUDE\CMATH
D:\VS1\VC\TOOLS\MSVC\14.13.26128\INCLUDE\CSTDLIB
C:\PROGRAM FILES\WINDOWS KITS\10\INCLUDE\10.0.16299.0\UCRT\STDLIB.H
C:\PROGRAM FILES\WINDOWS KITS\10\INCLUDE\10.0.16299.0\UCRT\CORECRT_MALLOC.H
C:\PROGRAM FILES\WINDOWS KITS\10\INCLUDE\10.0.16299.0\UCRT\CORECRT_SEARCH.H
C:\PROGRAM FILES\WINDOWS KITS\10\INCLUDE\10.0.16299.0\UCRT\STDDEF.H
C:\PROGRAM FILES\WINDOWS KITS\10\INCLUDE\10.0.16299.0\UCRT\MATH.H
C:\PROGRAM FILES\WINDOWS KITS\10\INCLUDE\10.0.16299.0\UCRT\CORECRT_MATH.H
D:\VS1\VC\TOOLS\MSVC\14.13.26128\INCLUDE\XTGMATH.H
D:\VS1\VC\TOOLS\MSVC\14.13.26128\INCLUDE\XTR1COMMON
D:\VS1\VC\TOOLS\MSVC\14.13.26128\INCLUDE\CSTDIO
D:\VS1\VC\TOOLS\MSVC\14.13.26128\INCLUDE\STREAMBUF
D:\VS1\VC\TOOLS\MSVC\14.13.26128\INCLUDE\XIOSBASE
D:\VS1\VC\TOOLS\MSVC\14.13.26128\INCLUDE\XLOCALE
D:\VS1\VC\TOOLS\MSVC\14.13.26128\INCLUDE\CSTRING
C:\PROGRAM FILES\WINDOWS KITS\10\INCLUDE\10.0.16299.0\UCRT\STRING.H
C:\PROGRAM FILES\WINDOWS KITS\10\INCLUDE\10.0.16299.0\UCRT\CORECRT_MEMORY.H
D:\VS1\VC\TOOLS\MSVC\14.13.26128\INCLUDE\STDEXCEPT
D:\VS1\VC\TOOLS\MSVC\14.13.26128\INCLUDE\EXCEPTION
D:\VS1\VC\TOOLS\MSVC\14.13.26128\INCLUDE\TYPE_TRAITS
D:\VS1\VC\TOOLS\MSVC\14.13.26128\INCLUDE\XSTDDEF
D:\VS1\VC\TOOLS\MSVC\14.13.26128\INCLUDE\CSTDDEF
D:\VS1\VC\TOOLS\MSVC\14.13.26128\INCLUDE\INITIALIZER_LIST
C:\PROGRAM FILES\WINDOWS KITS\10\INCLUDE\10.0.16299.0\UCRT\MALLOC.H
D:\VS1\VC\TOOLS\MSVC\14.13.26128\INCLUDE\VCRUNTIME_EXCEPTION.H
D:\VS1\VC\TOOLS\MSVC\14.13.26128\INCLUDE\EH.H
C:\PROGRAM FILES\WINDOWS KITS\10\INCLUDE\10.0.16299.0\UCRT\CORECRT_TERMINATE.H
D:\VS1\VC\TOOLS\MSVC\14.13.26128\INCLUDE\XSTRING
D:\VS1\VC\TOOLS\MSVC\14.13.26128\INCLUDE\XMEMORY0
D:\VS1\VC\TOOLS\MSVC\14.13.26128\INCLUDE\CSTDINT
D:\VS1\VC\TOOLS\MSVC\14.13.26128\INCLUDE\STDINT.H
D:\VS1\VC\TOOLS\MSVC\14.13.26128\INCLUDE\LIMITS
D:\VS1\VC\TOOLS\MSVC\14.13.26128\INCLUDE\YMATH.H
D:\VS1\VC\TOOLS\MSVC\14.13.26128\INCLUDE\CFLOAT
C:\PROGRAM FILES\WINDOWS KITS\10\INCLUDE\10.0.16299.0\UCRT\FLOAT.H
D:\VS1\VC\TOOLS\MSVC\14.13.26128\INCLUDE\CWCHAR
D:\VS1\VC\TOOLS\MSVC\14.13.26128\INCLUDE\NEW
D:\VS1\VC\TOOLS\MSVC\14.13.26128\INCLUDE\VCRUNTIME_NEW.H
D:\VS1\VC\TOOLS\MSVC\14.13.26128\INCLUDE\XUTILITY
D:\VS1\VC\TOOLS\MSVC\14.13.26128\INCLUDE\UTILITY
D:\VS1\VC\TOOLS\MSVC\14.13.26128\INCLUDE\IOSFWD
C:\PROGRAM FILES\WINDOWS KITS\10\INCLUDE\10.0.16299.0\UCRT\CRTDBG.H
D:\VS1\VC\TOOLS\MSVC\14.13.26128\INCLUDE\VCRUNTIME_NEW_DEBUG.H
D:\VS1\VC\TOOLS\MSVC\14.13.26128\INCLUDE\XATOMIC0.H
D:\VS1\VC\TOOLS\MSVC\14.13.26128\INCLUDE\INTRIN0.H
D:\VS1\VC\TOOLS\MSVC\14.13.26128\INCLUDE\TYPEINFO
D:\VS1\VC\TOOLS\MSVC\14.13.26128\INCLUDE\VCRUNTIME_TYPEINFO.H
D:\VS1\VC\TOOLS\MSVC\14.13.26128\INCLUDE\XLOCINFO
D:\VS1\VC\TOOLS\MSVC\14.13.26128\INCLUDE\XLOCINFO.H
C:\PROGRAM FILES\WINDOWS KITS\10\INCLUDE\10.0.16299.0\UCRT\CTYPE.H
C:\PROGRAM FILES\WINDOWS KITS\10\INCLUDE\10.0.16299.0\UCRT\LOCALE.H
D:\VS1\VC\TOOLS\MSVC\14.13.26128\INCLUDE\XFACET
D:\VS1\VC\TOOLS\MSVC\14.13.26128\INCLUDE\SYSTEM_ERROR
D:\VS1\VC\TOOLS\MSVC\14.13.26128\INCLUDE\CERRNO
D:\VS1\VC\TOOLS\MSVC\14.13.26128\INCLUDE\XCALL_ONCE.H
C:\PROGRAM FILES\WINDOWS KITS\10\INCLUDE\10.0.16299.0\UCRT\SHARE.H
D:\VS1\VC\TOOLS\MSVC\14.13.26128\INCLUDE\XSTRING_INSERT.H
D:\VS1\VC\TOOLS\MSVC\14.13.26128\INCLUDE\IOSTREAM
