﻿  MainFrame.cpp
  Win32Project3.vcxproj -> C:\Users\admin\Documents\Visual Studio 2015\Projects\JenQa\Win32Project3\Debug\Win32Project3.exe
  Win32Project3.vcxproj -> C:\Users\admin\Documents\Visual Studio 2015\Projects\JenQa\Win32Project3\Debug\Win32Project3.pdb (Full PDB)
