^C:\USERS\USER\SOURCE\REPOS\1.2\1.2\STDAFX.CPP
C:\USERS\USER\SOURCE\REPOS\1.2\1.2\DEBUG\1.2.PCH
C:\USERS\USER\SOURCE\REPOS\1.2\1.2\DEBUG\VC141.PDB
C:\USERS\USER\SOURCE\REPOS\1.2\1.2\DEBUG\VC141.IDB
C:\USERS\USER\SOURCE\REPOS\1.2\1.2\DEBUG\STDAFX.OBJ
^C:\USERS\USER\SOURCE\REPOS\1.2\1.2\1.2.CPP
C:\USERS\USER\SOURCE\REPOS\1.2\1.2\DEBUG\VC141.PDB
C:\USERS\USER\SOURCE\REPOS\1.2\1.2\DEBUG\VC141.IDB
C:\USERS\USER\SOURCE\REPOS\1.2\1.2\DEBUG\1.2.OBJ
