^C:\USERS\ADMIN\DOCUMENTS\VISUAL STUDIO 2015\PROJECTS\JENQA\WIN32PROJECT3\WIN32PROJECT3\DEBUG\CALCAPP.OBJ|C:\USERS\ADMIN\DOCUMENTS\VISUAL STUDIO 2015\PROJECTS\JENQA\WIN32PROJECT3\WIN32PROJECT3\DEBUG\MAINFRAME.OBJ
C:\USERS\ADMIN\DOCUMENTS\VISUAL STUDIO 2015\PROJECTS\JENQA\WIN32PROJECT3\DEBUG\WIN32PROJECT3.ILK
C:\USERS\ADMIN\DOCUMENTS\VISUAL STUDIO 2015\PROJECTS\JENQA\WIN32PROJECT3\DEBUG\WIN32PROJECT3.EXE
C:\USERS\ADMIN\DOCUMENTS\VISUAL STUDIO 2015\PROJECTS\JENQA\WIN32PROJECT3\DEBUG\WIN32PROJECT3.PDB
